<svg id="information_icon" data-name="information icon" xmlns="http://www.w3.org/2000/svg" width="20" height="20" viewBox="0 0 20 20">
  <circle id="Ellipse_78" data-name="Ellipse 78" cx="10" cy="10" r="10" fill="#8392a8"/>
  <text id="_" data-name="!" fill="#f7f7fc" stroke="rgba(0,0,0,0)" transform="translate(10 15)" stroke-width="1" font-size="12" font-family="Montserrat-Bold, Montserrat" font-weight="700" letter-spacing="0.001em"><tspan x="-1.734" y="0">!</tspan></text>
</svg>
