<svg id="Weone_logo" data-name="Weone logo" xmlns="http://www.w3.org/2000/svg" xmlns:xlink="http://www.w3.org/1999/xlink" width="149.001" height="45.792" viewBox="0 0 149.001 45.792">
  <defs>
    <clipPath id="clip-path">
      <path id="Path_11018" data-name="Path 11018" d="M899.742,168.668l-.82,1.772a2.83,2.83,0,0,1-5.14-.008l-.807-1.757a2.832,2.832,0,0,0-2.571-1.65h-.069a2.831,2.831,0,0,0-2.561,1.621l-.749,1.587a2.828,2.828,0,0,1-5.135-.039l-.684-1.506a2.83,2.83,0,0,0-2.579-1.663h-.059a2.836,2.836,0,0,0-2.52,4.131l5.577,10.9a2.831,2.831,0,0,0,2.52,1.543h.378a2.831,2.831,0,0,0,2.6-1.707l.66-1.52a2.828,2.828,0,0,1,5.173-.046l.734,1.613a2.83,2.83,0,0,0,2.576,1.663h.364a2.833,2.833,0,0,0,2.51-1.524l5.681-10.9a2.832,2.832,0,0,0-5.026-2.612c-.018.034-.035.069-.052.1" transform="translate(-875.736 -167.025)" fill="#fff"/>
    </clipPath>
  </defs>
  <g id="Group_3191" data-name="Group 3191" transform="translate(-9923 3165)">
    <g id="Group_3113" data-name="Group 3113" transform="translate(9923 -3165)">
      <g id="Group_3108" data-name="Group 3108" transform="translate(0 0)">
        <path id="Rectangle_4" data-name="Rectangle 4" d="M882.193,138.72h0a22.9,22.9,0,0,1,22.9,22.9h0a22.9,22.9,0,0,1-22.9,22.9h0a22.9,22.9,0,0,1-22.9-22.9h0A22.9,22.9,0,0,1,882.193,138.72Z" transform="translate(-859.297 -138.72)" fill="#9b4ee4"/>
        <g id="Untitled-1" transform="translate(8.414 15.949)">
          <g id="Group_2" data-name="Group 2" transform="translate(0 0)">
            <g id="Group_2051" data-name="Group 2051">
              <g id="Group_2050" data-name="Group 2050" clip-path="url(#clip-path)">
                <g id="Group_1" data-name="Group 1" transform="translate(-7.817 -13.329)">
                  <path id="Path_7" data-name="Path 7" d="M863.458,163.562l30.206-17.473,14.841,25.755L878.3,189.316Z" transform="translate(-863.458 -146.089)" fill="#fff"/>
                </g>
              </g>
            </g>
          </g>
        </g>
      </g>
    </g>
    <path id="Path_11020" data-name="Path 11020" d="M863.134,235.821q.8,2.155,3.694,2.155a4.07,4.07,0,0,0,2.386-.672,1.213,1.213,0,0,1,1.3-.077l1.705.98a1.187,1.187,0,0,1,.226,1.9,8.035,8.035,0,0,1-5.68,2,8.413,8.413,0,0,1-6.2-2.308,8.122,8.122,0,0,1,5.864-13.945,7.425,7.425,0,0,1,5.587,2.324,8.046,8.046,0,0,1,2.232,5.8q0,.4-.03.777a1.179,1.179,0,0,1-1.183,1.07Zm-.093-3.448h6.619a3.066,3.066,0,0,0-3.263-2.432A3.124,3.124,0,0,0,863.041,232.373Z" transform="translate(9145.539 -3374.283)" fill="#475359"/>
    <path id="Path_11021" data-name="Path 11021" d="M904.119,239.746a8.212,8.212,0,1,1,2.371-5.772A7.9,7.9,0,0,1,904.119,239.746Zm-8.311-3.155a3.644,3.644,0,0,0,5.048,0,3.877,3.877,0,0,0,0-5.233,3.644,3.644,0,0,0-5.048,0,3.877,3.877,0,0,0,0,5.233Z" transform="translate(9131.342 -3374.283)" fill="#475359"/>
    <path id="Path_11022" data-name="Path 11022" d="M957.14,235.821q.8,2.155,3.694,2.155a4.071,4.071,0,0,0,2.386-.672,1.213,1.213,0,0,1,1.3-.077l1.7.98a1.187,1.187,0,0,1,.227,1.9,8.036,8.036,0,0,1-5.68,2,8.414,8.414,0,0,1-6.2-2.308,8.122,8.122,0,0,1,5.864-13.945,7.425,7.425,0,0,1,5.587,2.324,8.049,8.049,0,0,1,2.232,5.8q0,.4-.03.777a1.18,1.18,0,0,1-1.183,1.07Zm-.092-3.448h6.618a3.066,3.066,0,0,0-3.263-2.432A3.123,3.123,0,0,0,957.048,232.373Z" transform="translate(9103.748 -3374.283)" fill="#475359"/>
    <path id="Path_11023" data-name="Path 11023" d="M930.28,225.847c-.083,0-.161.007-.243.009h0c-.082,0-.161-.009-.243-.009a7.118,7.118,0,0,0-5.131,1.93,7.322,7.322,0,0,0-2.011,5.542v2.034h-.01v5.129a1.188,1.188,0,0,0,1.189,1.188h2.24a1.188,1.188,0,0,0,1.189-1.188V232.9a2.744,2.744,0,0,1,.754-2.077,2.666,2.666,0,0,1,1.924-.724c.032,0,.06,0,.092,0h0c.03,0,.06,0,.091,0a2.667,2.667,0,0,1,1.924.724,2.744,2.744,0,0,1,.754,2.077v7.585a1.188,1.188,0,0,0,1.188,1.188h2.241a1.188,1.188,0,0,0,1.189-1.188v-7.442a7.2,7.2,0,0,0-2-5.262A7.118,7.118,0,0,0,930.28,225.847Z" transform="translate(9116.91 -3374.283)" fill="#475359"/>
    <path id="Path_11019" data-name="Path 11019" d="M834.822,226.623h2.388a1.187,1.187,0,0,1,1.131,1.55l-4.165,13.016a1.187,1.187,0,0,1-1.131.825h-2.559a1.187,1.187,0,0,1-1.138-.846l-2.209-7.372-2.209,7.372a1.187,1.187,0,0,1-1.137.846h-2.56a1.188,1.188,0,0,1-1.131-.825l-4.165-13.016a1.188,1.188,0,0,1,1.131-1.55h2.388a1.188,1.188,0,0,1,1.146.88l1.98,7.37,2.152-7.394a1.187,1.187,0,0,1,1.14-.856H828.4a1.188,1.188,0,0,1,1.14.856l2.152,7.394,1.979-7.37A1.188,1.188,0,0,1,834.822,226.623Z" transform="translate(9164.37 -3374.628)" fill="#475359"/>
  </g>
</svg>
